{
    "apiKey": "7cyrN4ObapL385LUwVcbgvJqm",
    "apiSecret" : "h5b7PEBVABX1FfNxG2eTMM1gn6MrKXVvxvrj0awvitWNGomOSG",
    "tokenKey" : "997475161493323776-kUEyshGAF8Eu4LORCBUw9tI2g9Bmxck",
    "tokenSecret" : "mifw3WyXB0xMIqL9JDhbwJuoesN2RlYH3nZGRxWi8Dl1W"
}